lab1/rca.vcd
$date
	Sat Jan 21 11:13:25 2023
$end
$version
	Icarus Verilog
$end
$timescale
	1ps
$end
$scope module test_adders $end
$var wire 1 ! actual_fa_sum $end
$var wire 4 " exp_rca4_sum [3:0] $end
$var wire 1 # exp_fa_sum $end
$var wire 1 $ exp_fa_cout $end
$var wire 2 % exp_fa2_sum [1:0] $end
$var wire 1 & exp_fa2_cout $end
$var wire 8 ' actual_rca4_sum [7:0] $end
$var wire 1 ( actual_ha_sum $end
$var wire 1 ) actual_ha_cout $end
$var wire 1 * actual_fa_cout $end
$var wire 2 + actual_fa2_sum [1:0] $end
$var wire 1 , actual_fa2_cout $end
$var reg 1 - a $end
$var reg 2 . a2 [1:0] $end
$var reg 4 / a4 [3:0] $end
$var reg 1 0 b $end
$var reg 2 1 b2 [1:0] $end
$var reg 4 2 b4 [3:0] $end
$var reg 1 3 cin $end
$var integer 32 4 errors [31:0] $end
$var integer 32 5 i [31:0] $end
$var integer 32 6 tests [31:0] $end
$scope module fa $end
$var wire 1 - a $end
$var wire 1 0 b $end
$var wire 1 3 cin $end
$var wire 1 * cout $end
$var wire 1 ! s $end
$var wire 1 7 s_tmp $end
$var wire 1 8 cout_tmp2 $end
$var wire 1 9 cout_tmp1 $end
$scope module h0 $end
$var wire 1 - a $end
$var wire 1 0 b $end
$var wire 1 9 cout $end
$var wire 1 ! s $end
$upscope $end
$scope module h1 $end
$var wire 1 7 a $end
$var wire 1 3 b $end
$var wire 1 8 cout $end
$var wire 1 ! s $end
$upscope $end
$upscope $end
$scope module fa2 $end
$var wire 2 : a [1:0] $end
$var wire 2 ; b [1:0] $end
$var wire 1 3 cin $end
$var wire 2 < s [1:0] $end
$var wire 1 = cout_tmp $end
$var wire 1 , cout $end
$scope module a0 $end
$var wire 1 > a $end
$var wire 1 ? b $end
$var wire 1 3 cin $end
$var wire 1 , cout $end
$var wire 1 @ s $end
$var wire 1 A s_tmp $end
$var wire 1 B cout_tmp2 $end
$var wire 1 C cout_tmp1 $end
$scope module h0 $end
$var wire 1 > a $end
$var wire 1 ? b $end
$var wire 1 C cout $end
$var wire 1 @ s $end
$upscope $end
$scope module h1 $end
$var wire 1 A a $end
$var wire 1 3 b $end
$var wire 1 B cout $end
$var wire 1 @ s $end
$upscope $end
$upscope $end
$scope module a1 $end
$var wire 1 D a $end
$var wire 1 E b $end
$var wire 1 = cin $end
$var wire 1 = cout $end
$var wire 1 F s $end
$var wire 1 G s_tmp $end
$var wire 1 H cout_tmp2 $end
$var wire 1 I cout_tmp1 $end
$scope module h0 $end
$var wire 1 D a $end
$var wire 1 E b $end
$var wire 1 I cout $end
$var wire 1 F s $end
$upscope $end
$scope module h1 $end
$var wire 1 G a $end
$var wire 1 = b $end
$var wire 1 H cout $end
$var wire 1 F s $end
$upscope $end
$upscope $end
$upscope $end
$scope module ha $end
$var wire 1 - a $end
$var wire 1 0 b $end
$var wire 1 ) cout $end
$var wire 1 ( s $end
$upscope $end
$scope module r0 $end
$var wire 8 J SWITCH [7:0] $end
$var wire 1 K cout0 $end
$var wire 8 L LED [7:0] $end
$scope module a0 $end
$var wire 2 M a [1:0] $end
$var wire 2 N b [1:0] $end
$var wire 1 O cin $end
$var wire 2 P s [1:0] $end
$var wire 1 Q cout_tmp $end
$var wire 1 K cout $end
$scope module a0 $end
$var wire 1 R a $end
$var wire 1 S b $end
$var wire 1 O cin $end
$var wire 1 K cout $end
$var wire 1 T s $end
$var wire 1 U s_tmp $end
$var wire 1 V cout_tmp2 $end
$var wire 1 W cout_tmp1 $end
$scope module h0 $end
$var wire 1 R a $end
$var wire 1 S b $end
$var wire 1 W cout $end
$var wire 1 T s $end
$upscope $end
$scope module h1 $end
$var wire 1 U a $end
$var wire 1 O b $end
$var wire 1 V cout $end
$var wire 1 T s $end
$upscope $end
$upscope $end
$scope module a1 $end
$var wire 1 X a $end
$var wire 1 Y b $end
$var wire 1 Q cin $end
$var wire 1 Q cout $end
$var wire 1 Z s $end
$var wire 1 [ s_tmp $end
$var wire 1 \ cout_tmp2 $end
$var wire 1 ] cout_tmp1 $end
$scope module h0 $end
$var wire 1 X a $end
$var wire 1 Y b $end
$var wire 1 ] cout $end
$var wire 1 Z s $end
$upscope $end
$scope module h1 $end
$var wire 1 [ a $end
$var wire 1 Q b $end
$var wire 1 \ cout $end
$var wire 1 Z s $end
$upscope $end
$upscope $end
$upscope $end
$scope module a3 $end
$var wire 2 ^ a [1:0] $end
$var wire 2 _ b [1:0] $end
$var wire 1 K cin $end
$var wire 2 ` s [1:0] $end
$var wire 1 a cout_tmp $end
$var wire 1 b cout $end
$scope module a0 $end
$var wire 1 c a $end
$var wire 1 d b $end
$var wire 1 K cin $end
$var wire 1 b cout $end
$var wire 1 e s $end
$var wire 1 f s_tmp $end
$var wire 1 g cout_tmp2 $end
$var wire 1 h cout_tmp1 $end
$scope module h0 $end
$var wire 1 c a $end
$var wire 1 d b $end
$var wire 1 h cout $end
$var wire 1 e s $end
$upscope $end
$scope module h1 $end
$var wire 1 f a $end
$var wire 1 K b $end
$var wire 1 g cout $end
$var wire 1 e s $end
$upscope $end
$upscope $end
$scope module a1 $end
$var wire 1 i a $end
$var wire 1 j b $end
$var wire 1 a cin $end
$var wire 1 a cout $end
$var wire 1 k s $end
$var wire 1 l s_tmp $end
$var wire 1 m cout_tmp2 $end
$var wire 1 n cout_tmp1 $end
$scope module h0 $end
$var wire 1 i a $end
$var wire 1 j b $end
$var wire 1 n cout $end
$var wire 1 k s $end
$upscope $end
$scope module h1 $end
$var wire 1 l a $end
$var wire 1 a b $end
$var wire 1 m cout $end
$var wire 1 k s $end
$upscope $end
$upscope $end
$upscope $end
$upscope $end
$scope task printPoints $end
$var reg 32 o actual [31:0] $end
$var reg 32 p possible [31:0] $end
$upscope $end
$upscope $end
$enddefinitions $end
#0
$dumpvars
bx p
bx o
xn
xm
zl
xk
xj
xi
xh
xg
zf
xe
xd
xc
xb
xa
bx `
bx _
bx ^
x]
x\
z[
xZ
xY
xX
xW
xV
zU
xT
xS
xR
xQ
bx P
1O
bx N
bx M
b0xxxx L
xK
bx J
xI
xH
zG
xF
xE
xD
xC
xB
zA
x@
x?
x>
x=
bx <
bx ;
bx :
09
x8
z7
b0 6
bx 5
b0 4
x3
bx 2
bx 1
00
bx /
bx .
0-
x,
bx +
x*
0)
0(
b0xxxx '
x&
bx %
x$
x#
bx "
x!
$end
#100000
b0 5
#106000
1(
1-
b1 5
b10 6
#112000
10
0-
b10 5
b100 6
#118000
1*
19
0(
1)
1-
b11 5
b110 6
#124000
0*
0#
0$
08
0B
09
0)
03
00
0-
b0 5
b1000 6
#130000
1#
1(
1-
b1 5
b1 4
b1010 6
#136000
10
0-
b10 5
b10 4
b1100 6
#142000
1*
0#
1$
19
0(
1)
1-
b11 5
b11 4
b1110 6
#148000
x*
x8
xB
1#
0$
09
0)
13
00
0-
b100 5
b100 4
b10000 6
#154000
0#
1$
1(
1-
b101 5
b110 4
b10010 6
#160000
10
0-
b110 5
b1000 4
b10100 6
#166000
1*
1#
19
0(
1)
1-
b111 5
b1010 4
b10110 6
#172000
0,
0C
0I
0#
08
0B
b0 %
0&
0?
0E
0>
0D
03
b0 1
b0 ;
b0 .
b0 :
b0 5
b1011 4
b11000 6
#178000
b1 %
1>
b1 .
b1 :
b1 5
b1100 4
b11010 6
#184000
b10 %
0>
1D
b10 .
b10 :
b10 5
b1101 4
b11100 6
#190000
b11 %
1>
b11 .
b11 :
b11 5
b1110 4
b11110 6
#196000
1?
b1 %
0>
0D
b1 1
b1 ;
b0 .
b0 :
b100 5
b1111 4
b100000 6
#202000
1,
1C
b10 %
1>
b1 .
b1 :
b101 5
b10000 4
b100010 6
#208000
0,
0C
b11 %
0>
1D
b10 .
b10 :
b110 5
b10010 4
b100100 6
#214000
1,
1C
b0 %
1&
1>
b11 .
b11 :
b111 5
b10011 4
b100110 6
#220000
0,
0C
0?
1E
b10 %
0&
0>
0D
b10 1
b10 ;
b0 .
b0 :
b1000 5
b10100 4
b101000 6
#226000
b11 %
1>
b1 .
b1 :
b1001 5
b10101 4
b101010 6
#232000
1=
1I
b0 %
1&
0>
1D
b10 .
b10 :
b1010 5
b10110 4
b101100 6
#238000
b1 %
1>
b11 .
b11 :
b1011 5
b11000 4
b101110 6
#244000
x=
0I
1?
b11 %
0&
0>
0D
b11 1
b11 ;
b0 .
b0 :
b1100 5
b11010 4
b110000 6
#250000
1,
1C
b0 %
1&
1>
b1 .
b1 :
b1101 5
b11011 4
b110010 6
#256000
0,
1=
0C
1I
b1 %
0>
1D
b10 .
b10 :
b1110 5
b11100 4
b110100 6
#262000
1,
1C
b10 %
1>
b11 .
b11 :
b1111 5
b11110 4
b110110 6
#268000
x=
x,
0C
0I
1#
x8
xB
0?
0E
b1 %
0&
0>
0D
13
b0 1
b0 ;
b0 .
b0 :
b10000 5
b11111 4
b111000 6
#274000
b10 %
1>
b1 .
b1 :
b10001 5
b100001 4
b111010 6
#280000
b11 %
0>
1D
b10 .
b10 :
b10010 5
b100011 4
b111100 6
#286000
b0 %
1&
1>
b11 .
b11 :
b10011 5
b100101 4
b111110 6
#292000
1?
b10 %
0&
0>
0D
b1 1
b1 ;
b0 .
b0 :
b10100 5
b100111 4
b1000000 6
#298000
1,
1C
b11 %
1>
b1 .
b1 :
b10101 5
b101001 4
b1000010 6
#304000
x,
0C
b0 %
1&
0>
1D
b10 .
b10 :
b10110 5
b101011 4
b1000100 6
#310000
1,
1C
b1 %
1>
b11 .
b11 :
b10111 5
b101101 4
b1000110 6
#316000
x,
0C
0?
1E
b11 %
0&
0>
0D
b10 1
b10 ;
b0 .
b0 :
b11000 5
b101110 4
b1001000 6
#322000
b0 %
1&
1>
b1 .
b1 :
b11001 5
b110000 4
b1001010 6
#328000
1=
1I
b1 %
0>
1D
b10 .
b10 :
b11010 5
b110010 4
b1001100 6
#334000
b10 %
1>
b11 .
b11 :
b11011 5
b110100 4
b1001110 6
#340000
x=
0I
1?
b0 %
0>
0D
b11 1
b11 ;
b0 .
b0 :
b11100 5
b110110 4
b1010000 6
#346000
1,
1C
b1 %
1>
b1 .
b1 :
b11101 5
b111000 4
b1010010 6
#352000
x,
1=
0C
1I
b10 %
0>
1D
b10 .
b10 :
b11110 5
b111001 4
b1010100 6
#358000
1,
1C
b11 %
1>
b11 .
b11 :
b11111 5
b111011 4
b1010110 6
#364000
0h
0n
0W
0]
0c
0i
0S
0Y
0d
0j
0R
0X
b0 ^
b0 N
b0 _
b0 "
b0 M
b0 2
b0 J
b0 /
b0 5
b111100 4
b1011000 6
#370000
1R
b1 M
b1 "
b1 J
b1 /
b1 5
b111101 4
b1011001 6
#376000
1c
0R
1X
b1 ^
b10 M
b10 "
b10 J
b10 /
b10 5
b111110 4
b1011010 6
#382000
1R
b11 M
b11 "
b11 J
b11 /
b11 5
b111111 4
b1011011 6
#388000
0c
1i
0R
0X
b10 ^
b0 M
b100 "
b100 J
b100 /
b100 5
b1000000 4
b1011100 6
#394000
1R
b1 M
b101 "
b101 J
b101 /
b101 5
b1000001 4
b1011101 6
#400000
1c
0R
1X
b11 ^
b10 M
b110 "
b110 J
b110 /
b110 5
b1000010 4
b1011110 6
#406000
1R
b11 M
b111 "
b111 J
b111 /
b111 5
b1000011 4
b1011111 6
#412000
0c
0i
0R
0X
b0 ^
b0 M
b1000 "
b1000 J
b1000 /
b1000 5
b1000100 4
b1100000 6
#418000
1R
b1 M
b1001 "
b1001 J
b1001 /
b1001 5
b1000101 4
b1100001 6
#424000
1c
0R
1X
b1 ^
b10 M
b1010 "
b1010 J
b1010 /
b1010 5
b1000110 4
b1100010 6
#430000
1R
b11 M
b1011 "
b1011 J
b1011 /
b1011 5
b1000111 4
b1100011 6
#436000
0c
1i
0R
0X
b10 ^
b0 M
b1100 "
b1100 J
b1100 /
b1100 5
b1001000 4
b1100100 6
#442000
1R
b1 M
b1101 "
b1101 J
b1101 /
b1101 5
b1001001 4
b1100101 6
#448000
1c
0R
1X
b11 ^
b10 M
b1110 "
b1110 J
b1110 /
b1110 5
b1001010 4
b1100110 6
#454000
1R
b11 M
b1111 "
b1111 J
b1111 /
b1111 5
b1001011 4
b1100111 6
#460000
0c
0i
1S
0R
0X
b0 ^
b1 N
b0 M
b1 "
b1 2
b10000 J
b0 /
b10000 5
b1001100 4
b1101000 6
#466000
1K
1W
1R
b1 M
b10 "
b10001 J
b1 /
b10001 5
b1001101 4
b1101001 6
#472000
xK
0W
1c
0R
1X
b1 ^
b10 M
b11 "
b10010 J
b10 /
b10010 5
b1001110 4
b1101010 6
#478000
1K
1W
1R
b11 M
b100 "
b10011 J
b11 /
b10011 5
b1001111 4
b1101011 6
#484000
xK
0W
0c
1i
0R
0X
b10 ^
b0 M
b101 "
b10100 J
b100 /
b10100 5
b1010000 4
b1101100 6
#490000
1K
1W
1R
b1 M
b110 "
b10101 J
b101 /
b10101 5
b1010001 4
b1101101 6
#496000
xK
0W
1c
0R
1X
b11 ^
b10 M
b111 "
b10110 J
b110 /
b10110 5
b1010010 4
b1101110 6
#502000
1K
1W
1R
b11 M
b1000 "
b10111 J
b111 /
b10111 5
b1010011 4
b1101111 6
#508000
xK
0W
0c
0i
0R
0X
b0 ^
b0 M
b1001 "
b11000 J
b1000 /
b11000 5
b1010100 4
b1110000 6
#514000
1K
1W
1R
b1 M
b1010 "
b11001 J
b1001 /
b11001 5
b1010101 4
b1110001 6
#520000
xK
0W
1c
0R
1X
b1 ^
b10 M
b1011 "
b11010 J
b1010 /
b11010 5
b1010110 4
b1110010 6
#526000
1K
1W
1R
b11 M
b1100 "
b11011 J
b1011 /
b11011 5
b1010111 4
b1110011 6
#532000
xK
0W
0c
1i
0R
0X
b10 ^
b0 M
b1101 "
b11100 J
b1100 /
b11100 5
b1011000 4
b1110100 6
#538000
1K
1W
1R
b1 M
b1110 "
b11101 J
b1101 /
b11101 5
b1011001 4
b1110101 6
#544000
xK
0W
1c
0R
1X
b11 ^
b10 M
b1111 "
b11110 J
b1110 /
b11110 5
b1011010 4
b1110110 6
#550000
1K
1W
1R
b11 M
b0 "
b11111 J
b1111 /
b11111 5
b1011011 4
b1110111 6
#556000
xK
0W
0c
0i
0S
1Y
0R
0X
b0 ^
b10 N
b0 M
b10 "
b10 2
b100000 J
b0 /
b100000 5
b1011100 4
b1111000 6
#562000
1R
b1 M
b11 "
b100001 J
b1 /
b100001 5
b1011101 4
b1111001 6
#568000
1Q
1]
1c
0R
1X
b1 ^
b10 M
b100 "
b100010 J
b10 /
b100010 5
b1011110 4
b1111010 6
#574000
1R
b11 M
b101 "
b100011 J
b11 /
b100011 5
b1011111 4
b1111011 6
#580000
xQ
0]
0c
1i
0R
0X
b10 ^
b0 M
b110 "
b100100 J
b100 /
b100100 5
b1100000 4
b1111100 6
#586000
1R
b1 M
b111 "
b100101 J
b101 /
b100101 5
b1100001 4
b1111101 6
#592000
1Q
1]
1c
0R
1X
b11 ^
b10 M
b1000 "
b100110 J
b110 /
b100110 5
b1100010 4
b1111110 6
#598000
1R
b11 M
b1001 "
b100111 J
b111 /
b100111 5
b1100011 4
b1111111 6
#604000
xQ
0]
0c
0i
0R
0X
b0 ^
b0 M
b1010 "
b101000 J
b1000 /
b101000 5
b1100100 4
b10000000 6
#610000
1R
b1 M
b1011 "
b101001 J
b1001 /
b101001 5
b1100101 4
b10000001 6
#616000
1Q
1]
1c
0R
1X
b1 ^
b10 M
b1100 "
b101010 J
b1010 /
b101010 5
b1100110 4
b10000010 6
#622000
1R
b11 M
b1101 "
b101011 J
b1011 /
b101011 5
b1100111 4
b10000011 6
#628000
xQ
0]
0c
1i
0R
0X
b10 ^
b0 M
b1110 "
b101100 J
b1100 /
b101100 5
b1101000 4
b10000100 6
#634000
1R
b1 M
b1111 "
b101101 J
b1101 /
b101101 5
b1101001 4
b10000101 6
#640000
1Q
1]
1c
0R
1X
b11 ^
b10 M
b0 "
b101110 J
b1110 /
b101110 5
b1101010 4
b10000110 6
#646000
1R
b11 M
b1 "
b101111 J
b1111 /
b101111 5
b1101011 4
b10000111 6
#652000
xQ
0]
0c
0i
1S
0R
0X
b0 ^
b11 N
b0 M
b11 "
b11 2
b110000 J
b0 /
b110000 5
b1101100 4
b10001000 6
#658000
1K
1W
1R
b1 M
b100 "
b110001 J
b1 /
b110001 5
b1101101 4
b10001001 6
#664000
xK
1Q
0W
1]
1c
0R
1X
b1 ^
b10 M
b101 "
b110010 J
b10 /
b110010 5
b1101110 4
b10001010 6
#670000
1K
1W
1R
b11 M
b110 "
b110011 J
b11 /
b110011 5
b1101111 4
b10001011 6
#676000
xK
xQ
0W
0]
0c
1i
0R
0X
b10 ^
b0 M
b111 "
b110100 J
b100 /
b110100 5
b1110000 4
b10001100 6
#682000
1K
1W
1R
b1 M
b1000 "
b110101 J
b101 /
b110101 5
b1110001 4
b10001101 6
#688000
xK
1Q
0W
1]
1c
0R
1X
b11 ^
b10 M
b1001 "
b110110 J
b110 /
b110110 5
b1110010 4
b10001110 6
#694000
1K
1W
1R
b11 M
b1010 "
b110111 J
b111 /
b110111 5
b1110011 4
b10001111 6
#700000
xK
xQ
0W
0]
0c
0i
0R
0X
b0 ^
b0 M
b1011 "
b111000 J
b1000 /
b111000 5
b1110100 4
b10010000 6
#706000
1K
1W
1R
b1 M
b1100 "
b111001 J
b1001 /
b111001 5
b1110101 4
b10010001 6
#712000
xK
1Q
0W
1]
1c
0R
1X
b1 ^
b10 M
b1101 "
b111010 J
b1010 /
b111010 5
b1110110 4
b10010010 6
#718000
1K
1W
1R
b11 M
b1110 "
b111011 J
b1011 /
b111011 5
b1110111 4
b10010011 6
#724000
xK
xQ
0W
0]
0c
1i
0R
0X
b10 ^
b0 M
b1111 "
b111100 J
b1100 /
b111100 5
b1111000 4
b10010100 6
#730000
1K
1W
1R
b1 M
b0 "
b111101 J
b1101 /
b111101 5
b1111001 4
b10010101 6
#736000
xK
1Q
0W
1]
1c
0R
1X
b11 ^
b10 M
b1 "
b111110 J
b1110 /
b111110 5
b1111010 4
b10010110 6
#742000
1K
1W
1R
b11 M
b10 "
b111111 J
b1111 /
b111111 5
b1111011 4
b10010111 6
#748000
xK
xQ
0W
0]
0c
0i
0S
0Y
1d
0R
0X
b0 ^
b0 N
b1 _
b0 M
b100 "
b100 2
b1000000 J
b0 /
b1000000 5
b1111100 4
b10011000 6
#754000
1R
b1 M
b101 "
b1000001 J
b1 /
b1000001 5
b1111101 4
b10011001 6
#760000
1b
1h
1c
0R
1X
b1 ^
b10 M
b110 "
b1000010 J
b10 /
b1000010 5
b1111110 4
b10011010 6
#766000
1R
b11 M
b111 "
b1000011 J
b11 /
b1000011 5
b1111111 4
b10011011 6
#772000
xb
0h
0c
1i
0R
0X
b10 ^
b0 M
b1000 "
b1000100 J
b100 /
b1000100 5
b10000000 4
b10011100 6
#778000
1R
b1 M
b1001 "
b1000101 J
b101 /
b1000101 5
b10000001 4
b10011101 6
#784000
1b
1h
1c
0R
1X
b11 ^
b10 M
b1010 "
b1000110 J
b110 /
b1000110 5
b10000010 4
b10011110 6
#790000
1R
b11 M
b1011 "
b1000111 J
b111 /
b1000111 5
b10000011 4
b10011111 6
#796000
xb
0h
0c
0i
0R
0X
b0 ^
b0 M
b1100 "
b1001000 J
b1000 /
b1001000 5
b10000100 4
b10100000 6
#802000
1R
b1 M
b1101 "
b1001001 J
b1001 /
b1001001 5
b10000101 4
b10100001 6
#808000
1b
1h
1c
0R
1X
b1 ^
b10 M
b1110 "
b1001010 J
b1010 /
b1001010 5
b10000110 4
b10100010 6
#814000
1R
b11 M
b1111 "
b1001011 J
b1011 /
b1001011 5
b10000111 4
b10100011 6
#820000
xb
0h
0c
1i
0R
0X
b10 ^
b0 M
b0 "
b1001100 J
b1100 /
b1001100 5
b10001000 4
b10100100 6
#826000
1R
b1 M
b1 "
b1001101 J
b1101 /
b1001101 5
b10001001 4
b10100101 6
#832000
1b
1h
1c
0R
1X
b11 ^
b10 M
b10 "
b1001110 J
b1110 /
b1001110 5
b10001010 4
b10100110 6
#838000
1R
b11 M
b11 "
b1001111 J
b1111 /
b1001111 5
b10001011 4
b10100111 6
#844000
xb
0h
0c
0i
1S
0R
0X
b0 ^
b1 N
b0 M
b101 "
b101 2
b1010000 J
b0 /
b1010000 5
b10001100 4
b10101000 6
#850000
1K
1W
1R
b1 M
b110 "
b1010001 J
b1 /
b1010001 5
b10001101 4
b10101001 6
#856000
1b
xK
1h
0W
1c
0R
1X
b1 ^
b10 M
b111 "
b1010010 J
b10 /
b1010010 5
b10001110 4
b10101010 6
#862000
1K
1W
1R
b11 M
b1000 "
b1010011 J
b11 /
b1010011 5
b10001111 4
b10101011 6
#868000
xb
xK
0h
0W
0c
1i
0R
0X
b10 ^
b0 M
b1001 "
b1010100 J
b100 /
b1010100 5
b10010000 4
b10101100 6
#874000
1K
1W
1R
b1 M
b1010 "
b1010101 J
b101 /
b1010101 5
b10010001 4
b10101101 6
#880000
1b
xK
1h
0W
1c
0R
1X
b11 ^
b10 M
b1011 "
b1010110 J
b110 /
b1010110 5
b10010010 4
b10101110 6
#886000
1K
1W
1R
b11 M
b1100 "
b1010111 J
b111 /
b1010111 5
b10010011 4
b10101111 6
#892000
xb
xK
0h
0W
0c
0i
0R
0X
b0 ^
b0 M
b1101 "
b1011000 J
b1000 /
b1011000 5
b10010100 4
b10110000 6
#898000
1K
1W
1R
b1 M
b1110 "
b1011001 J
b1001 /
b1011001 5
b10010101 4
b10110001 6
#904000
1b
xK
1h
0W
1c
0R
1X
b1 ^
b10 M
b1111 "
b1011010 J
b1010 /
b1011010 5
b10010110 4
b10110010 6
#910000
1K
1W
1R
b11 M
b0 "
b1011011 J
b1011 /
b1011011 5
b10010111 4
b10110011 6
#916000
xb
xK
0h
0W
0c
1i
0R
0X
b10 ^
b0 M
b1 "
b1011100 J
b1100 /
b1011100 5
b10011000 4
b10110100 6
#922000
1K
1W
1R
b1 M
b10 "
b1011101 J
b1101 /
b1011101 5
b10011001 4
b10110101 6
#928000
1b
xK
1h
0W
1c
0R
1X
b11 ^
b10 M
b11 "
b1011110 J
b1110 /
b1011110 5
b10011010 4
b10110110 6
#934000
1K
1W
1R
b11 M
b100 "
b1011111 J
b1111 /
b1011111 5
b10011011 4
b10110111 6
#940000
xb
xK
0h
0W
0c
0i
0S
1Y
0R
0X
b0 ^
b10 N
b0 M
b110 "
b110 2
b1100000 J
b0 /
b1100000 5
b10011100 4
b10111000 6
#946000
1R
b1 M
b111 "
b1100001 J
b1 /
b1100001 5
b10011101 4
b10111001 6
#952000
1b
1Q
1h
1]
1c
0R
1X
b1 ^
b10 M
b1000 "
b1100010 J
b10 /
b1100010 5
b10011110 4
b10111010 6
#958000
1R
b11 M
b1001 "
b1100011 J
b11 /
b1100011 5
b10011111 4
b10111011 6
#964000
xb
xQ
0h
0]
0c
1i
0R
0X
b10 ^
b0 M
b1010 "
b1100100 J
b100 /
b1100100 5
b10100000 4
b10111100 6
#970000
1R
b1 M
b1011 "
b1100101 J
b101 /
b1100101 5
b10100001 4
b10111101 6
#976000
1b
1Q
1h
1]
1c
0R
1X
b11 ^
b10 M
b1100 "
b1100110 J
b110 /
b1100110 5
b10100010 4
b10111110 6
#982000
1R
b11 M
b1101 "
b1100111 J
b111 /
b1100111 5
b10100011 4
b10111111 6
#988000
xb
xQ
0h
0]
0c
0i
0R
0X
b0 ^
b0 M
b1110 "
b1101000 J
b1000 /
b1101000 5
b10100100 4
b11000000 6
#994000
1R
b1 M
b1111 "
b1101001 J
b1001 /
b1101001 5
b10100101 4
b11000001 6
#1000000
1b
1Q
1h
1]
1c
0R
1X
b1 ^
b10 M
b0 "
b1101010 J
b1010 /
b1101010 5
b10100110 4
b11000010 6
#1006000
1R
b11 M
b1 "
b1101011 J
b1011 /
b1101011 5
b10100111 4
b11000011 6
#1012000
xb
xQ
0h
0]
0c
1i
0R
0X
b10 ^
b0 M
b10 "
b1101100 J
b1100 /
b1101100 5
b10101000 4
b11000100 6
#1018000
1R
b1 M
b11 "
b1101101 J
b1101 /
b1101101 5
b10101001 4
b11000101 6
#1024000
1b
1Q
1h
1]
1c
0R
1X
b11 ^
b10 M
b100 "
b1101110 J
b1110 /
b1101110 5
b10101010 4
b11000110 6
#1030000
1R
b11 M
b101 "
b1101111 J
b1111 /
b1101111 5
b10101011 4
b11000111 6
#1036000
xb
xQ
0h
0]
0c
0i
1S
0R
0X
b0 ^
b11 N
b0 M
b111 "
b111 2
b1110000 J
b0 /
b1110000 5
b10101100 4
b11001000 6
#1042000
1K
1W
1R
b1 M
b1000 "
b1110001 J
b1 /
b1110001 5
b10101101 4
b11001001 6
#1048000
1b
xK
1Q
1h
0W
1]
1c
0R
1X
b1 ^
b10 M
b1001 "
b1110010 J
b10 /
b1110010 5
b10101110 4
b11001010 6
#1054000
1K
1W
1R
b11 M
b1010 "
b1110011 J
b11 /
b1110011 5
b10101111 4
b11001011 6
#1060000
xb
xK
xQ
0h
0W
0]
0c
1i
0R
0X
b10 ^
b0 M
b1011 "
b1110100 J
b100 /
b1110100 5
b10110000 4
b11001100 6
#1066000
1K
1W
1R
b1 M
b1100 "
b1110101 J
b101 /
b1110101 5
b10110001 4
b11001101 6
#1072000
1b
xK
1Q
1h
0W
1]
1c
0R
1X
b11 ^
b10 M
b1101 "
b1110110 J
b110 /
b1110110 5
b10110010 4
b11001110 6
#1078000
1K
1W
1R
b11 M
b1110 "
b1110111 J
b111 /
b1110111 5
b10110011 4
b11001111 6
#1084000
xb
xK
xQ
0h
0W
0]
0c
0i
0R
0X
b0 ^
b0 M
b1111 "
b1111000 J
b1000 /
b1111000 5
b10110100 4
b11010000 6
#1090000
1K
1W
1R
b1 M
b0 "
b1111001 J
b1001 /
b1111001 5
b10110101 4
b11010001 6
#1096000
1b
xK
1Q
1h
0W
1]
1c
0R
1X
b1 ^
b10 M
b1 "
b1111010 J
b1010 /
b1111010 5
b10110110 4
b11010010 6
#1102000
1K
1W
1R
b11 M
b10 "
b1111011 J
b1011 /
b1111011 5
b10110111 4
b11010011 6
#1108000
xb
xK
xQ
0h
0W
0]
0c
1i
0R
0X
b10 ^
b0 M
b11 "
b1111100 J
b1100 /
b1111100 5
b10111000 4
b11010100 6
#1114000
1K
1W
1R
b1 M
b100 "
b1111101 J
b1101 /
b1111101 5
b10111001 4
b11010101 6
#1120000
1b
xK
1Q
1h
0W
1]
1c
0R
1X
b11 ^
b10 M
b101 "
b1111110 J
b1110 /
b1111110 5
b10111010 4
b11010110 6
#1126000
1K
1W
1R
b11 M
b110 "
b1111111 J
b1111 /
b1111111 5
b10111011 4
b11010111 6
#1132000
xb
xK
xQ
0h
0W
0]
0c
0i
0S
0Y
0d
1j
0R
0X
b0 ^
b0 N
b10 _
b0 M
b1000 "
b1000 2
b10000000 J
b0 /
b10000000 5
b10111100 4
b11011000 6
#1138000
1R
b1 M
b1001 "
b10000001 J
b1 /
b10000001 5
b10111101 4
b11011001 6
#1144000
1c
0R
1X
b1 ^
b10 M
b1010 "
b10000010 J
b10 /
b10000010 5
b10111110 4
b11011010 6
#1150000
1R
b11 M
b1011 "
b10000011 J
b11 /
b10000011 5
b10111111 4
b11011011 6
#1156000
1a
1n
0c
1i
0R
0X
b10 ^
b0 M
b1100 "
b10000100 J
b100 /
b10000100 5
b11000000 4
b11011100 6
#1162000
1R
b1 M
b1101 "
b10000101 J
b101 /
b10000101 5
b11000001 4
b11011101 6
#1168000
1c
0R
1X
b11 ^
b10 M
b1110 "
b10000110 J
b110 /
b10000110 5
b11000010 4
b11011110 6
#1174000
1R
b11 M
b1111 "
b10000111 J
b111 /
b10000111 5
b11000011 4
b11011111 6
#1180000
xa
0n
0c
0i
0R
0X
b0 ^
b0 M
b0 "
b10001000 J
b1000 /
b10001000 5
b11000100 4
b11100000 6
#1186000
1R
b1 M
b1 "
b10001001 J
b1001 /
b10001001 5
b11000101 4
b11100001 6
#1192000
1c
0R
1X
b1 ^
b10 M
b10 "
b10001010 J
b1010 /
b10001010 5
b11000110 4
b11100010 6
#1198000
1R
b11 M
b11 "
b10001011 J
b1011 /
b10001011 5
b11000111 4
b11100011 6
#1204000
1a
1n
0c
1i
0R
0X
b10 ^
b0 M
b100 "
b10001100 J
b1100 /
b10001100 5
b11001000 4
b11100100 6
#1210000
1R
b1 M
b101 "
b10001101 J
b1101 /
b10001101 5
b11001001 4
b11100101 6
#1216000
1c
0R
1X
b11 ^
b10 M
b110 "
b10001110 J
b1110 /
b10001110 5
b11001010 4
b11100110 6
#1222000
1R
b11 M
b111 "
b10001111 J
b1111 /
b10001111 5
b11001011 4
b11100111 6
#1228000
xa
0n
0c
0i
1S
0R
0X
b0 ^
b1 N
b0 M
b1001 "
b1001 2
b10010000 J
b0 /
b10010000 5
b11001100 4
b11101000 6
#1234000
1K
1W
1R
b1 M
b1010 "
b10010001 J
b1 /
b10010001 5
b11001101 4
b11101001 6
#1240000
xK
0W
1c
0R
1X
b1 ^
b10 M
b1011 "
b10010010 J
b10 /
b10010010 5
b11001110 4
b11101010 6
#1246000
1K
1W
1R
b11 M
b1100 "
b10010011 J
b11 /
b10010011 5
b11001111 4
b11101011 6
#1252000
1a
xK
1n
0W
0c
1i
0R
0X
b10 ^
b0 M
b1101 "
b10010100 J
b100 /
b10010100 5
b11010000 4
b11101100 6
#1258000
1K
1W
1R
b1 M
b1110 "
b10010101 J
b101 /
b10010101 5
b11010001 4
b11101101 6
#1264000
xK
0W
1c
0R
1X
b11 ^
b10 M
b1111 "
b10010110 J
b110 /
b10010110 5
b11010010 4
b11101110 6
#1270000
1K
1W
1R
b11 M
b0 "
b10010111 J
b111 /
b10010111 5
b11010011 4
b11101111 6
